http://www.forexite.com/free_forex_quotes/2013/01/020113.zip
http://www.forexite.com/free_forex_quotes/2013/01/030113.zip
http://www.forexite.com/free_forex_quotes/2013/01/040113.zip
http://www.forexite.com/free_forex_quotes/2013/01/060113.zip
http://www.forexite.com/free_forex_quotes/2013/01/070113.zip
http://www.forexite.com/free_forex_quotes/2013/01/080113.zip
http://www.forexite.com/free_forex_quotes/2013/01/090113.zip
http://www.forexite.com/free_forex_quotes/2013/01/100113.zip
http://www.forexite.com/free_forex_quotes/2013/01/110113.zip
http://www.forexite.com/free_forex_quotes/2013/01/130113.zip
http://www.forexite.com/free_forex_quotes/2013/01/140113.zip
http://www.forexite.com/free_forex_quotes/2013/01/150113.zip
http://www.forexite.com/free_forex_quotes/2013/01/160113.zip
http://www.forexite.com/free_forex_quotes/2013/01/170113.zip
http://www.forexite.com/free_forex_quotes/2013/01/180113.zip
http://www.forexite.com/free_forex_quotes/2013/01/200113.zip
http://www.forexite.com/free_forex_quotes/2013/01/210113.zip
http://www.forexite.com/free_forex_quotes/2013/01/220113.zip
http://www.forexite.com/free_forex_quotes/2013/01/230113.zip
http://www.forexite.com/free_forex_quotes/2013/01/240113.zip
http://www.forexite.com/free_forex_quotes/2013/01/250113.zip
http://www.forexite.com/free_forex_quotes/2013/01/270113.zip
http://www.forexite.com/free_forex_quotes/2013/01/280113.zip
http://www.forexite.com/free_forex_quotes/2013/01/290113.zip
http://www.forexite.com/free_forex_quotes/2013/01/300113.zip
http://www.forexite.com/free_forex_quotes/2013/01/310113.zip
http://www.forexite.com/free_forex_quotes/2013/02/010213.zip
http://www.forexite.com/free_forex_quotes/2013/02/030213.zip
http://www.forexite.com/free_forex_quotes/2013/02/040213.zip
http://www.forexite.com/free_forex_quotes/2013/02/050213.zip
http://www.forexite.com/free_forex_quotes/2013/02/060213.zip
http://www.forexite.com/free_forex_quotes/2013/02/070213.zip
http://www.forexite.com/free_forex_quotes/2013/02/080213.zip
http://www.forexite.com/free_forex_quotes/2013/02/100213.zip
http://www.forexite.com/free_forex_quotes/2013/02/110213.zip
http://www.forexite.com/free_forex_quotes/2013/02/120213.zip
http://www.forexite.com/free_forex_quotes/2013/02/130213.zip
http://www.forexite.com/free_forex_quotes/2013/02/140213.zip
http://www.forexite.com/free_forex_quotes/2013/02/150213.zip
http://www.forexite.com/free_forex_quotes/2013/02/170213.zip
http://www.forexite.com/free_forex_quotes/2013/02/180213.zip
http://www.forexite.com/free_forex_quotes/2013/02/190213.zip
http://www.forexite.com/free_forex_quotes/2013/02/200213.zip
http://www.forexite.com/free_forex_quotes/2013/02/210213.zip
http://www.forexite.com/free_forex_quotes/2013/02/220213.zip
http://www.forexite.com/free_forex_quotes/2013/02/240213.zip
http://www.forexite.com/free_forex_quotes/2013/02/250213.zip
http://www.forexite.com/free_forex_quotes/2013/02/260213.zip
http://www.forexite.com/free_forex_quotes/2013/02/270213.zip
http://www.forexite.com/free_forex_quotes/2013/02/280213.zip
http://www.forexite.com/free_forex_quotes/2013/03/010313.zip
http://www.forexite.com/free_forex_quotes/2013/03/030313.zip
http://www.forexite.com/free_forex_quotes/2013/03/040313.zip
http://www.forexite.com/free_forex_quotes/2013/03/050313.zip
http://www.forexite.com/free_forex_quotes/2013/03/060313.zip
http://www.forexite.com/free_forex_quotes/2013/03/070313.zip
http://www.forexite.com/free_forex_quotes/2013/03/080313.zip
http://www.forexite.com/free_forex_quotes/2013/03/100313.zip
http://www.forexite.com/free_forex_quotes/2013/03/110313.zip
http://www.forexite.com/free_forex_quotes/2013/03/120313.zip
http://www.forexite.com/free_forex_quotes/2013/03/130313.zip
http://www.forexite.com/free_forex_quotes/2013/03/140313.zip
http://www.forexite.com/free_forex_quotes/2013/03/150313.zip
http://www.forexite.com/free_forex_quotes/2013/03/170313.zip
http://www.forexite.com/free_forex_quotes/2013/03/180313.zip
http://www.forexite.com/free_forex_quotes/2013/03/190313.zip
http://www.forexite.com/free_forex_quotes/2013/03/200313.zip
http://www.forexite.com/free_forex_quotes/2013/03/210313.zip
http://www.forexite.com/free_forex_quotes/2013/03/220313.zip
http://www.forexite.com/free_forex_quotes/2013/03/240313.zip
http://www.forexite.com/free_forex_quotes/2013/03/250313.zip
http://www.forexite.com/free_forex_quotes/2013/03/260313.zip
http://www.forexite.com/free_forex_quotes/2013/03/270313.zip
http://www.forexite.com/free_forex_quotes/2013/03/280313.zip
http://www.forexite.com/free_forex_quotes/2013/03/290313.zip
http://www.forexite.com/free_forex_quotes/2013/03/310313.zip
http://www.forexite.com/free_forex_quotes/2013/04/010413.zip
http://www.forexite.com/free_forex_quotes/2013/04/020413.zip
http://www.forexite.com/free_forex_quotes/2013/04/030413.zip
http://www.forexite.com/free_forex_quotes/2013/04/040413.zip
http://www.forexite.com/free_forex_quotes/2013/04/050413.zip
http://www.forexite.com/free_forex_quotes/2013/04/070413.zip
http://www.forexite.com/free_forex_quotes/2013/04/080413.zip
http://www.forexite.com/free_forex_quotes/2013/04/090413.zip
http://www.forexite.com/free_forex_quotes/2013/04/100413.zip
http://www.forexite.com/free_forex_quotes/2013/04/110413.zip
http://www.forexite.com/free_forex_quotes/2013/04/120413.zip
http://www.forexite.com/free_forex_quotes/2013/04/140413.zip
http://www.forexite.com/free_forex_quotes/2013/04/150413.zip
http://www.forexite.com/free_forex_quotes/2013/04/160413.zip
http://www.forexite.com/free_forex_quotes/2013/04/170413.zip
http://www.forexite.com/free_forex_quotes/2013/04/180413.zip
http://www.forexite.com/free_forex_quotes/2013/04/190413.zip
http://www.forexite.com/free_forex_quotes/2013/04/210413.zip
http://www.forexite.com/free_forex_quotes/2013/04/220413.zip
http://www.forexite.com/free_forex_quotes/2013/04/230413.zip
http://www.forexite.com/free_forex_quotes/2013/04/240413.zip
http://www.forexite.com/free_forex_quotes/2013/04/250413.zip
http://www.forexite.com/free_forex_quotes/2013/04/260413.zip
http://www.forexite.com/free_forex_quotes/2013/04/280413.zip
http://www.forexite.com/free_forex_quotes/2013/04/290413.zip
http://www.forexite.com/free_forex_quotes/2013/04/300413.zip
http://www.forexite.com/free_forex_quotes/2013/05/010513.zip
http://www.forexite.com/free_forex_quotes/2013/05/020513.zip
http://www.forexite.com/free_forex_quotes/2013/05/030513.zip
http://www.forexite.com/free_forex_quotes/2013/05/050513.zip
http://www.forexite.com/free_forex_quotes/2013/05/060513.zip
http://www.forexite.com/free_forex_quotes/2013/05/070513.zip
http://www.forexite.com/free_forex_quotes/2013/05/080513.zip
http://www.forexite.com/free_forex_quotes/2013/05/090513.zip
http://www.forexite.com/free_forex_quotes/2013/05/100513.zip
http://www.forexite.com/free_forex_quotes/2013/05/120513.zip
http://www.forexite.com/free_forex_quotes/2013/05/130513.zip
http://www.forexite.com/free_forex_quotes/2013/05/140513.zip
http://www.forexite.com/free_forex_quotes/2013/05/150513.zip
http://www.forexite.com/free_forex_quotes/2013/05/160513.zip
http://www.forexite.com/free_forex_quotes/2013/05/170513.zip
http://www.forexite.com/free_forex_quotes/2013/05/190513.zip
http://www.forexite.com/free_forex_quotes/2013/05/200513.zip
http://www.forexite.com/free_forex_quotes/2013/05/210513.zip
http://www.forexite.com/free_forex_quotes/2013/05/220513.zip
http://www.forexite.com/free_forex_quotes/2013/05/230513.zip
http://www.forexite.com/free_forex_quotes/2013/05/240513.zip
http://www.forexite.com/free_forex_quotes/2013/05/260513.zip
http://www.forexite.com/free_forex_quotes/2013/05/270513.zip
http://www.forexite.com/free_forex_quotes/2013/05/280513.zip
http://www.forexite.com/free_forex_quotes/2013/05/290513.zip
http://www.forexite.com/free_forex_quotes/2013/05/300513.zip
http://www.forexite.com/free_forex_quotes/2013/05/310513.zip
http://www.forexite.com/free_forex_quotes/2013/06/020613.zip
http://www.forexite.com/free_forex_quotes/2013/06/030613.zip
http://www.forexite.com/free_forex_quotes/2013/06/040613.zip
http://www.forexite.com/free_forex_quotes/2013/06/050613.zip
http://www.forexite.com/free_forex_quotes/2013/06/060613.zip
http://www.forexite.com/free_forex_quotes/2013/06/070613.zip
http://www.forexite.com/free_forex_quotes/2013/06/090613.zip
http://www.forexite.com/free_forex_quotes/2013/06/100613.zip
http://www.forexite.com/free_forex_quotes/2013/06/110613.zip
http://www.forexite.com/free_forex_quotes/2013/06/120613.zip
http://www.forexite.com/free_forex_quotes/2013/06/130613.zip
http://www.forexite.com/free_forex_quotes/2013/06/140613.zip
http://www.forexite.com/free_forex_quotes/2013/06/160613.zip
http://www.forexite.com/free_forex_quotes/2013/06/170613.zip
http://www.forexite.com/free_forex_quotes/2013/06/180613.zip
http://www.forexite.com/free_forex_quotes/2013/06/190613.zip
http://www.forexite.com/free_forex_quotes/2013/06/200613.zip
http://www.forexite.com/free_forex_quotes/2013/06/210613.zip
http://www.forexite.com/free_forex_quotes/2013/06/230613.zip
http://www.forexite.com/free_forex_quotes/2013/06/240613.zip
http://www.forexite.com/free_forex_quotes/2013/06/250613.zip
http://www.forexite.com/free_forex_quotes/2013/06/260613.zip
http://www.forexite.com/free_forex_quotes/2013/06/270613.zip
http://www.forexite.com/free_forex_quotes/2013/06/280613.zip
http://www.forexite.com/free_forex_quotes/2013/06/300613.zip
http://www.forexite.com/free_forex_quotes/2013/07/010713.zip
http://www.forexite.com/free_forex_quotes/2013/07/020713.zip
http://www.forexite.com/free_forex_quotes/2013/07/030713.zip
http://www.forexite.com/free_forex_quotes/2013/07/040713.zip
http://www.forexite.com/free_forex_quotes/2013/07/050713.zip
http://www.forexite.com/free_forex_quotes/2013/07/070713.zip
http://www.forexite.com/free_forex_quotes/2013/07/080713.zip
http://www.forexite.com/free_forex_quotes/2013/07/090713.zip
http://www.forexite.com/free_forex_quotes/2013/07/100713.zip
http://www.forexite.com/free_forex_quotes/2013/07/110713.zip
http://www.forexite.com/free_forex_quotes/2013/07/120713.zip
http://www.forexite.com/free_forex_quotes/2013/07/140713.zip
http://www.forexite.com/free_forex_quotes/2013/07/150713.zip
http://www.forexite.com/free_forex_quotes/2013/07/160713.zip
http://www.forexite.com/free_forex_quotes/2013/07/170713.zip
http://www.forexite.com/free_forex_quotes/2013/07/180713.zip
http://www.forexite.com/free_forex_quotes/2013/07/190713.zip
http://www.forexite.com/free_forex_quotes/2013/07/210713.zip
http://www.forexite.com/free_forex_quotes/2013/07/220713.zip
http://www.forexite.com/free_forex_quotes/2013/07/230713.zip
http://www.forexite.com/free_forex_quotes/2013/07/240713.zip
http://www.forexite.com/free_forex_quotes/2013/07/250713.zip
http://www.forexite.com/free_forex_quotes/2013/07/260713.zip
http://www.forexite.com/free_forex_quotes/2013/07/280713.zip
http://www.forexite.com/free_forex_quotes/2013/07/290713.zip
http://www.forexite.com/free_forex_quotes/2013/07/300713.zip
http://www.forexite.com/free_forex_quotes/2013/07/310713.zip
http://www.forexite.com/free_forex_quotes/2013/08/010813.zip
http://www.forexite.com/free_forex_quotes/2013/08/020813.zip
http://www.forexite.com/free_forex_quotes/2013/08/040813.zip
http://www.forexite.com/free_forex_quotes/2013/08/050813.zip
http://www.forexite.com/free_forex_quotes/2013/08/060813.zip
http://www.forexite.com/free_forex_quotes/2013/08/070813.zip
http://www.forexite.com/free_forex_quotes/2013/08/080813.zip
http://www.forexite.com/free_forex_quotes/2013/08/090813.zip
http://www.forexite.com/free_forex_quotes/2013/08/110813.zip
http://www.forexite.com/free_forex_quotes/2013/08/120813.zip
http://www.forexite.com/free_forex_quotes/2013/08/130813.zip
http://www.forexite.com/free_forex_quotes/2013/08/140813.zip
http://www.forexite.com/free_forex_quotes/2013/08/150813.zip
http://www.forexite.com/free_forex_quotes/2013/08/160813.zip
http://www.forexite.com/free_forex_quotes/2013/08/180813.zip
http://www.forexite.com/free_forex_quotes/2013/08/190813.zip
http://www.forexite.com/free_forex_quotes/2013/08/200813.zip
http://www.forexite.com/free_forex_quotes/2013/08/210813.zip
http://www.forexite.com/free_forex_quotes/2013/08/220813.zip
http://www.forexite.com/free_forex_quotes/2013/08/230813.zip
http://www.forexite.com/free_forex_quotes/2013/08/250813.zip
http://www.forexite.com/free_forex_quotes/2013/08/260813.zip
http://www.forexite.com/free_forex_quotes/2013/08/270813.zip
http://www.forexite.com/free_forex_quotes/2013/08/280813.zip
http://www.forexite.com/free_forex_quotes/2013/08/290813.zip
http://www.forexite.com/free_forex_quotes/2013/08/300813.zip
http://www.forexite.com/free_forex_quotes/2013/09/010913.zip
http://www.forexite.com/free_forex_quotes/2013/09/020913.zip
http://www.forexite.com/free_forex_quotes/2013/09/030913.zip
http://www.forexite.com/free_forex_quotes/2013/09/040913.zip
http://www.forexite.com/free_forex_quotes/2013/09/050913.zip
http://www.forexite.com/free_forex_quotes/2013/09/060913.zip
http://www.forexite.com/free_forex_quotes/2013/09/080913.zip
http://www.forexite.com/free_forex_quotes/2013/09/090913.zip
http://www.forexite.com/free_forex_quotes/2013/09/100913.zip
http://www.forexite.com/free_forex_quotes/2013/09/110913.zip
http://www.forexite.com/free_forex_quotes/2013/09/120913.zip
http://www.forexite.com/free_forex_quotes/2013/09/130913.zip
http://www.forexite.com/free_forex_quotes/2013/09/150913.zip
http://www.forexite.com/free_forex_quotes/2013/09/160913.zip
http://www.forexite.com/free_forex_quotes/2013/09/170913.zip
http://www.forexite.com/free_forex_quotes/2013/09/180913.zip
http://www.forexite.com/free_forex_quotes/2013/09/190913.zip
http://www.forexite.com/free_forex_quotes/2013/09/200913.zip
http://www.forexite.com/free_forex_quotes/2013/09/220913.zip
http://www.forexite.com/free_forex_quotes/2013/09/230913.zip
http://www.forexite.com/free_forex_quotes/2013/09/240913.zip
http://www.forexite.com/free_forex_quotes/2013/09/250913.zip
http://www.forexite.com/free_forex_quotes/2013/09/260913.zip
http://www.forexite.com/free_forex_quotes/2013/09/270913.zip
http://www.forexite.com/free_forex_quotes/2013/09/290913.zip
http://www.forexite.com/free_forex_quotes/2013/09/300913.zip
http://www.forexite.com/free_forex_quotes/2013/10/011013.zip
http://www.forexite.com/free_forex_quotes/2013/10/021013.zip
http://www.forexite.com/free_forex_quotes/2013/10/031013.zip
http://www.forexite.com/free_forex_quotes/2013/10/041013.zip
http://www.forexite.com/free_forex_quotes/2013/10/061013.zip
http://www.forexite.com/free_forex_quotes/2013/10/071013.zip
http://www.forexite.com/free_forex_quotes/2013/10/081013.zip
http://www.forexite.com/free_forex_quotes/2013/10/091013.zip
http://www.forexite.com/free_forex_quotes/2013/10/101013.zip
http://www.forexite.com/free_forex_quotes/2013/10/111013.zip
http://www.forexite.com/free_forex_quotes/2013/10/131013.zip
http://www.forexite.com/free_forex_quotes/2013/10/141013.zip
http://www.forexite.com/free_forex_quotes/2013/10/151013.zip
http://www.forexite.com/free_forex_quotes/2013/10/161013.zip
http://www.forexite.com/free_forex_quotes/2013/10/171013.zip
http://www.forexite.com/free_forex_quotes/2013/10/181013.zip
http://www.forexite.com/free_forex_quotes/2013/10/201013.zip
http://www.forexite.com/free_forex_quotes/2013/10/211013.zip
http://www.forexite.com/free_forex_quotes/2013/10/221013.zip
http://www.forexite.com/free_forex_quotes/2013/10/231013.zip
http://www.forexite.com/free_forex_quotes/2013/10/241013.zip
http://www.forexite.com/free_forex_quotes/2013/10/251013.zip
http://www.forexite.com/free_forex_quotes/2013/10/271013.zip
http://www.forexite.com/free_forex_quotes/2013/10/281013.zip
http://www.forexite.com/free_forex_quotes/2013/10/291013.zip
http://www.forexite.com/free_forex_quotes/2013/10/301013.zip
http://www.forexite.com/free_forex_quotes/2013/10/311013.zip
http://www.forexite.com/free_forex_quotes/2013/11/011113.zip
http://www.forexite.com/free_forex_quotes/2013/11/031113.zip
http://www.forexite.com/free_forex_quotes/2013/11/041113.zip
http://www.forexite.com/free_forex_quotes/2013/11/051113.zip
http://www.forexite.com/free_forex_quotes/2013/11/061113.zip
http://www.forexite.com/free_forex_quotes/2013/11/071113.zip
http://www.forexite.com/free_forex_quotes/2013/11/081113.zip
http://www.forexite.com/free_forex_quotes/2013/11/101113.zip
http://www.forexite.com/free_forex_quotes/2013/11/111113.zip
http://www.forexite.com/free_forex_quotes/2013/11/121113.zip
http://www.forexite.com/free_forex_quotes/2013/11/131113.zip
http://www.forexite.com/free_forex_quotes/2013/11/141113.zip
http://www.forexite.com/free_forex_quotes/2013/11/151113.zip
http://www.forexite.com/free_forex_quotes/2013/11/171113.zip
http://www.forexite.com/free_forex_quotes/2013/11/181113.zip
http://www.forexite.com/free_forex_quotes/2013/11/191113.zip
http://www.forexite.com/free_forex_quotes/2013/11/201113.zip
http://www.forexite.com/free_forex_quotes/2013/11/211113.zip
http://www.forexite.com/free_forex_quotes/2013/11/221113.zip
http://www.forexite.com/free_forex_quotes/2013/11/241113.zip
http://www.forexite.com/free_forex_quotes/2013/11/251113.zip
http://www.forexite.com/free_forex_quotes/2013/11/261113.zip
http://www.forexite.com/free_forex_quotes/2013/11/271113.zip
http://www.forexite.com/free_forex_quotes/2013/11/281113.zip
http://www.forexite.com/free_forex_quotes/2013/11/291113.zip
http://www.forexite.com/free_forex_quotes/2013/12/011213.zip
http://www.forexite.com/free_forex_quotes/2013/12/021213.zip
http://www.forexite.com/free_forex_quotes/2013/12/031213.zip
http://www.forexite.com/free_forex_quotes/2013/12/041213.zip
http://www.forexite.com/free_forex_quotes/2013/12/051213.zip
http://www.forexite.com/free_forex_quotes/2013/12/061213.zip
http://www.forexite.com/free_forex_quotes/2013/12/081213.zip
http://www.forexite.com/free_forex_quotes/2013/12/091213.zip
http://www.forexite.com/free_forex_quotes/2013/12/101213.zip
http://www.forexite.com/free_forex_quotes/2013/12/111213.zip
http://www.forexite.com/free_forex_quotes/2013/12/121213.zip
http://www.forexite.com/free_forex_quotes/2013/12/131213.zip
http://www.forexite.com/free_forex_quotes/2013/12/151213.zip
http://www.forexite.com/free_forex_quotes/2013/12/161213.zip
http://www.forexite.com/free_forex_quotes/2013/12/171213.zip
http://www.forexite.com/free_forex_quotes/2013/12/181213.zip
http://www.forexite.com/free_forex_quotes/2013/12/191213.zip
http://www.forexite.com/free_forex_quotes/2013/12/201213.zip
http://www.forexite.com/free_forex_quotes/2013/12/221213.zip
http://www.forexite.com/free_forex_quotes/2013/12/231213.zip
http://www.forexite.com/free_forex_quotes/2013/12/241213.zip
http://www.forexite.com/free_forex_quotes/2013/12/251213.zip
http://www.forexite.com/free_forex_quotes/2013/12/261213.zip
http://www.forexite.com/free_forex_quotes/2013/12/271213.zip
http://www.forexite.com/free_forex_quotes/2013/12/291213.zip
http://www.forexite.com/free_forex_quotes/2013/12/301213.zip
http://www.forexite.com/free_forex_quotes/2013/12/311213.zip
http://www.forexite.com/free_forex_quotes/2014/01/020114.zip
http://www.forexite.com/free_forex_quotes/2014/01/030114.zip
http://www.forexite.com/free_forex_quotes/2014/01/050114.zip
http://www.forexite.com/free_forex_quotes/2014/01/060114.zip
http://www.forexite.com/free_forex_quotes/2014/01/070114.zip
http://www.forexite.com/free_forex_quotes/2014/01/080114.zip
http://www.forexite.com/free_forex_quotes/2014/01/090114.zip
http://www.forexite.com/free_forex_quotes/2014/01/100114.zip
http://www.forexite.com/free_forex_quotes/2014/01/120114.zip
http://www.forexite.com/free_forex_quotes/2014/01/130114.zip
http://www.forexite.com/free_forex_quotes/2014/01/140114.zip
http://www.forexite.com/free_forex_quotes/2014/01/150114.zip
http://www.forexite.com/free_forex_quotes/2014/01/160114.zip
http://www.forexite.com/free_forex_quotes/2014/01/170114.zip
http://www.forexite.com/free_forex_quotes/2014/01/190114.zip
http://www.forexite.com/free_forex_quotes/2014/01/200114.zip
http://www.forexite.com/free_forex_quotes/2014/01/210114.zip
